<svg width="54" height="14" viewBox="0 0 54 14" fill="none" xmlns="http://www.w3.org/2000/svg">
<path d="M0.738492 13V0.237999H3.96049V13H0.738492ZM8.55049 13V0.237999H11.7725V13H8.55049ZM2.57449 7.816V5.116H9.72049V7.816H2.57449ZM20.2551 13.234C19.2711 13.234 18.3651 13.066 17.5371 12.73C16.7091 12.394 15.9831 11.926 15.3591 11.326C14.7471 10.726 14.2671 10.024 13.9191 9.22C13.5711 8.404 13.3971 7.528 13.3971 6.592C13.3971 5.656 13.5651 4.792 13.9011 4C14.2491 3.196 14.7291 2.494 15.3411 1.894C15.9531 1.294 16.6731 0.831999 17.5011 0.508C18.3291 0.171999 19.2351 0.00399888 20.2191 0.00399888C21.2031 0.00399888 22.1091 0.171999 22.9371 0.508C23.7651 0.831999 24.4851 1.294 25.0971 1.894C25.7091 2.494 26.1831 3.196 26.5191 4C26.8671 4.804 27.0411 5.674 27.0411 6.61C27.0411 7.546 26.8671 8.416 26.5191 9.22C26.1831 10.024 25.7091 10.732 25.0971 11.344C24.4851 11.944 23.7651 12.412 22.9371 12.748C22.1211 13.072 21.2271 13.234 20.2551 13.234ZM20.2191 10.354C20.9391 10.354 21.5631 10.198 22.0911 9.886C22.6191 9.574 23.0271 9.136 23.3151 8.572C23.6031 8.008 23.7471 7.348 23.7471 6.592C23.7471 6.04 23.6631 5.536 23.4951 5.08C23.3391 4.624 23.1051 4.234 22.7931 3.91C22.4811 3.574 22.1091 3.316 21.6771 3.136C21.2451 2.956 20.7591 2.866 20.2191 2.866C19.4991 2.866 18.8751 3.022 18.3471 3.334C17.8191 3.634 17.4111 4.066 17.1231 4.63C16.8351 5.194 16.6911 5.848 16.6911 6.592C16.6911 7.168 16.7691 7.69 16.9251 8.158C17.0931 8.614 17.3331 9.01 17.6451 9.346C17.9571 9.67 18.3291 9.922 18.7611 10.102C19.1931 10.27 19.6791 10.354 20.2191 10.354ZM28.6526 13V0.237999H30.9746L35.8706 7.636H34.7726L39.6506 0.237999H41.9726V13H38.7866V5.566L39.2906 5.71L36.3566 10.12H34.2686L31.3526 5.71L31.8566 5.566V13H28.6526ZM44.2444 13V0.237999H47.4664V13H44.2444ZM46.8004 13V10.282H53.7124V13H46.8004ZM46.8004 7.816V5.17H53.0644V7.816H46.8004ZM46.8004 2.956V0.237999H53.6044V2.956H46.8004Z" fill="black"/>
</svg>
