<svg width="116" height="14" viewBox="0 0 116 14" fill="none" xmlns="http://www.w3.org/2000/svg">
<path d="M2.77789 8.428V6.034H5.29789C5.60989 6.034 5.89189 5.974 6.14389 5.854C6.40789 5.722 6.61789 5.53 6.77389 5.278C6.92989 5.026 7.00789 4.714 7.00789 4.342C7.00789 3.97 6.92989 3.658 6.77389 3.406C6.61789 3.142 6.40789 2.95 6.14389 2.83C5.89189 2.698 5.60989 2.632 5.29789 2.632H2.77789V0.237999H5.85589C6.67189 0.237999 7.40989 0.405999 8.06989 0.741999C8.72989 1.066 9.25189 1.534 9.63589 2.146C10.0199 2.746 10.2119 3.478 10.2119 4.342C10.2119 5.182 10.0199 5.914 9.63589 6.538C9.25189 7.15 8.72989 7.618 8.06989 7.942C7.40989 8.266 6.67189 8.428 5.85589 8.428H2.77789ZM0.221891 13V0.237999H3.44389V13H0.221891ZM11.6301 13V0.237999H14.8521V13H11.6301ZM19.4421 13V0.237999H22.6641V13H19.4421ZM13.4661 7.816V5.116H20.6121V7.816H13.4661ZM24.9367 13V0.237999H28.1587V13H24.9367ZM30.4211 13V0.237999H33.6431V13H30.4211ZM32.9771 13V10.228H39.1331V13H32.9771ZM46.2815 13.234C45.2975 13.234 44.3915 13.066 43.5635 12.73C42.7355 12.394 42.0095 11.926 41.3855 11.326C40.7735 10.726 40.2935 10.024 39.9455 9.22C39.5975 8.404 39.4235 7.528 39.4235 6.592C39.4235 5.656 39.5915 4.792 39.9275 4C40.2755 3.196 40.7555 2.494 41.3675 1.894C41.9795 1.294 42.6995 0.831999 43.5275 0.508C44.3555 0.171999 45.2615 0.00399888 46.2455 0.00399888C47.2295 0.00399888 48.1355 0.171999 48.9635 0.508C49.7915 0.831999 50.5115 1.294 51.1235 1.894C51.7355 2.494 52.2095 3.196 52.5455 4C52.8935 4.804 53.0675 5.674 53.0675 6.61C53.0675 7.546 52.8935 8.416 52.5455 9.22C52.2095 10.024 51.7355 10.732 51.1235 11.344C50.5115 11.944 49.7915 12.412 48.9635 12.748C48.1475 13.072 47.2535 13.234 46.2815 13.234ZM46.2455 10.354C46.9655 10.354 47.5895 10.198 48.1175 9.886C48.6455 9.574 49.0535 9.136 49.3415 8.572C49.6295 8.008 49.7735 7.348 49.7735 6.592C49.7735 6.04 49.6895 5.536 49.5215 5.08C49.3655 4.624 49.1315 4.234 48.8195 3.91C48.5075 3.574 48.1355 3.316 47.7035 3.136C47.2715 2.956 46.7855 2.866 46.2455 2.866C45.5255 2.866 44.9015 3.022 44.3735 3.334C43.8455 3.634 43.4375 4.066 43.1495 4.63C42.8615 5.194 42.7175 5.848 42.7175 6.592C42.7175 7.168 42.7955 7.69 42.9515 8.158C43.1195 8.614 43.3595 9.01 43.6715 9.346C43.9835 9.67 44.3555 9.922 44.7875 10.102C45.2195 10.27 45.7055 10.354 46.2455 10.354ZM58.3937 13.198C57.3257 13.198 56.3957 13.036 55.6037 12.712C54.8237 12.388 54.1097 11.878 53.4617 11.182L55.4957 9.13C55.9397 9.598 56.4137 9.958 56.9177 10.21C57.4217 10.45 57.9917 10.57 58.6277 10.57C59.1677 10.57 59.5817 10.48 59.8697 10.3C60.1697 10.108 60.3197 9.85 60.3197 9.526C60.3197 9.226 60.2117 8.98 59.9957 8.788C59.7797 8.584 59.4917 8.41 59.1317 8.266C58.7837 8.11 58.3937 7.966 57.9617 7.834C57.5417 7.69 57.1157 7.522 56.6837 7.33C56.2637 7.126 55.8737 6.88 55.5137 6.592C55.1657 6.304 54.8837 5.944 54.6677 5.512C54.4517 5.08 54.3437 4.546 54.3437 3.91C54.3437 3.094 54.5357 2.398 54.9197 1.822C55.3157 1.246 55.8617 0.801999 56.5577 0.489999C57.2537 0.177999 58.0637 0.0219997 58.9877 0.0219997C59.9117 0.0219997 60.7637 0.177999 61.5437 0.489999C62.3237 0.801999 62.9657 1.234 63.4697 1.786L61.4177 3.82C61.0337 3.436 60.6437 3.148 60.2477 2.956C59.8517 2.764 59.4197 2.668 58.9517 2.668C58.5077 2.668 58.1597 2.746 57.9077 2.902C57.6557 3.058 57.5297 3.28 57.5297 3.568C57.5297 3.856 57.6377 4.09 57.8537 4.27C58.0697 4.45 58.3517 4.612 58.6997 4.756C59.0597 4.888 59.4497 5.026 59.8697 5.17C60.3017 5.314 60.7277 5.482 61.1477 5.674C61.5677 5.866 61.9517 6.112 62.2997 6.412C62.6597 6.712 62.9477 7.09 63.1637 7.546C63.3797 8.002 63.4877 8.554 63.4877 9.202C63.4877 10.474 63.0377 11.458 62.1377 12.154C61.2497 12.85 60.0017 13.198 58.3937 13.198ZM71.4358 13.234C70.4518 13.234 69.5458 13.066 68.7178 12.73C67.8898 12.394 67.1638 11.926 66.5398 11.326C65.9278 10.726 65.4478 10.024 65.0998 9.22C64.7518 8.404 64.5778 7.528 64.5778 6.592C64.5778 5.656 64.7458 4.792 65.0818 4C65.4298 3.196 65.9098 2.494 66.5218 1.894C67.1338 1.294 67.8538 0.831999 68.6818 0.508C69.5098 0.171999 70.4158 0.00399888 71.3998 0.00399888C72.3838 0.00399888 73.2898 0.171999 74.1178 0.508C74.9458 0.831999 75.6658 1.294 76.2778 1.894C76.8898 2.494 77.3638 3.196 77.6998 4C78.0478 4.804 78.2218 5.674 78.2218 6.61C78.2218 7.546 78.0478 8.416 77.6998 9.22C77.3638 10.024 76.8898 10.732 76.2778 11.344C75.6658 11.944 74.9458 12.412 74.1178 12.748C73.3018 13.072 72.4078 13.234 71.4358 13.234ZM71.3998 10.354C72.1198 10.354 72.7438 10.198 73.2718 9.886C73.7998 9.574 74.2078 9.136 74.4958 8.572C74.7838 8.008 74.9278 7.348 74.9278 6.592C74.9278 6.04 74.8438 5.536 74.6758 5.08C74.5198 4.624 74.2858 4.234 73.9738 3.91C73.6618 3.574 73.2898 3.316 72.8578 3.136C72.4258 2.956 71.9398 2.866 71.3998 2.866C70.6798 2.866 70.0558 3.022 69.5278 3.334C68.9998 3.634 68.5918 4.066 68.3038 4.63C68.0158 5.194 67.8718 5.848 67.8718 6.592C67.8718 7.168 67.9498 7.69 68.1058 8.158C68.2738 8.614 68.5138 9.01 68.8258 9.346C69.1378 9.67 69.5098 9.922 69.9418 10.102C70.3738 10.27 70.8598 10.354 71.3998 10.354ZM82.3892 8.428V6.034H84.9092C85.2212 6.034 85.5032 5.974 85.7552 5.854C86.0192 5.722 86.2292 5.53 86.3852 5.278C86.5412 5.026 86.6192 4.714 86.6192 4.342C86.6192 3.97 86.5412 3.658 86.3852 3.406C86.2292 3.142 86.0192 2.95 85.7552 2.83C85.5032 2.698 85.2212 2.632 84.9092 2.632H82.3892V0.237999H85.4672C86.2832 0.237999 87.0212 0.405999 87.6812 0.741999C88.3412 1.066 88.8632 1.534 89.2472 2.146C89.6312 2.746 89.8232 3.478 89.8232 4.342C89.8232 5.182 89.6312 5.914 89.2472 6.538C88.8632 7.15 88.3412 7.618 87.6812 7.942C87.0212 8.266 86.2832 8.428 85.4672 8.428H82.3892ZM79.8332 13V0.237999H83.0552V13H79.8332ZM91.2414 13V0.237999H94.4634V13H91.2414ZM99.0534 13V0.237999H102.275V13H99.0534ZM93.0774 7.816V5.116H100.223V7.816H93.0774ZM108.454 8.428L103.576 0.237999H107.266L110.992 6.88H108.4L112.126 0.237999H115.744L110.83 8.428H108.454ZM108.076 13V7.114H111.298V13H108.076Z" fill="black"/>
</svg>
