<svg width="229" height="28" viewBox="0 0 229 28" fill="none" xmlns="http://www.w3.org/2000/svg">
<g style="mix-blend-mode:multiply">
<path fill-rule="evenodd" clip-rule="evenodd" d="M114.212 12.7602C69.857 13.3115 25.8405 17.809 3.40543 27.7686C1.86534 28.4523 0.386364 26.2497 0.102045 22.849C-0.182274 19.4482 0.83573 16.1372 2.37582 15.4535C25.4279 5.21999 69.9729 0.749489 114.27 0.198961C158.626 -0.352306 203.129 3.02752 226.219 8.7042C227.773 9.08616 228.872 12.1907 228.675 15.6384C228.478 19.086 227.059 21.5713 225.505 21.1893C202.747 15.5943 158.507 12.2097 114.212 12.7602Z" fill="#69EC00"/>
</g>
</svg>
