<svg width="528" height="129" viewBox="0 0 528 129" fill="none" xmlns="http://www.w3.org/2000/svg">
<path d="M15.384 47L0.664 2.2H7.896L18.968 36.696H17.048L27.864 2.2H32.984L43.8 36.696H41.88L52.952 2.2H60.184L45.464 47H40.344L29.464 12.568H31.384L20.504 47H15.384ZM86.835 47V29.272C86.835 27.224 86.1737 25.5387 84.851 24.216C83.571 22.8933 81.907 22.232 79.859 22.232C78.4937 22.232 77.2777 22.5307 76.211 23.128C75.1443 23.7253 74.3123 24.5573 73.715 25.624C73.1177 26.6907 72.819 27.9067 72.819 29.272L70.067 27.736C70.067 25.3893 70.579 23.32 71.603 21.528C72.627 19.6933 74.035 18.264 75.827 17.24C77.6617 16.1733 79.7097 15.64 81.971 15.64C84.275 15.64 86.323 16.152 88.115 17.176C89.907 18.2 91.315 19.6293 92.339 21.464C93.363 23.256 93.875 25.3467 93.875 27.736V47H86.835ZM65.779 47V0.919998H72.819V47H65.779ZM113.893 47.64C111.12 47.64 108.602 46.936 106.341 45.528C104.122 44.12 102.352 42.2213 101.029 39.832C99.749 37.4 99.109 34.6907 99.109 31.704C99.109 28.6747 99.749 25.9653 101.029 23.576C102.352 21.144 104.122 19.224 106.341 17.816C108.602 16.3653 111.12 15.64 113.893 15.64C116.24 15.64 118.309 16.152 120.101 17.176C121.936 18.1573 123.386 19.5227 124.453 21.272C125.52 23.0213 126.053 25.0053 126.053 27.224V36.056C126.053 38.2747 125.52 40.2587 124.453 42.008C123.429 43.7573 122 45.144 120.165 46.168C118.33 47.1493 116.24 47.64 113.893 47.64ZM115.045 40.984C117.648 40.984 119.738 40.1093 121.317 38.36C122.938 36.6107 123.749 34.3707 123.749 31.64C123.749 29.8053 123.386 28.184 122.661 26.776C121.936 25.368 120.912 24.28 119.589 23.512C118.309 22.7013 116.794 22.296 115.045 22.296C113.338 22.296 111.824 22.7013 110.501 23.512C109.221 24.28 108.197 25.368 107.429 26.776C106.704 28.184 106.341 29.8053 106.341 31.64C106.341 33.4747 106.704 35.096 107.429 36.504C108.197 37.912 109.221 39.0213 110.501 39.832C111.824 40.6 113.338 40.984 115.045 40.984ZM123.301 47V38.744L124.517 31.256L123.301 23.832V16.28H130.341V47H123.301ZM142.826 47V3.48H149.866V47H142.826ZM135.466 22.68V16.28H157.226V22.68H135.466ZM188.018 47.64C185.245 47.64 182.727 46.936 180.466 45.528C178.247 44.12 176.477 42.2213 175.154 39.832C173.874 37.4 173.234 34.6907 173.234 31.704C173.234 28.6747 173.874 25.9653 175.154 23.576C176.477 21.144 178.247 19.224 180.466 17.816C182.727 16.3653 185.245 15.64 188.018 15.64C190.365 15.64 192.434 16.152 194.226 17.176C196.061 18.1573 197.511 19.5227 198.578 21.272C199.645 23.0213 200.178 25.0053 200.178 27.224V36.056C200.178 38.2747 199.645 40.2587 198.578 42.008C197.554 43.7573 196.125 45.144 194.29 46.168C192.455 47.1493 190.365 47.64 188.018 47.64ZM189.17 40.984C190.919 40.984 192.434 40.6 193.714 39.832C195.037 39.0213 196.061 37.912 196.786 36.504C197.511 35.096 197.874 33.4747 197.874 31.64C197.874 29.8053 197.511 28.184 196.786 26.776C196.061 25.368 195.037 24.28 193.714 23.512C192.434 22.7013 190.919 22.296 189.17 22.296C187.463 22.296 185.949 22.7013 184.626 23.512C183.346 24.28 182.322 25.368 181.554 26.776C180.829 28.184 180.466 29.8053 180.466 31.64C180.466 33.4747 180.829 35.096 181.554 36.504C182.322 37.912 183.346 39.0213 184.626 39.832C185.949 40.6 187.463 40.984 189.17 40.984ZM204.466 47H197.426V38.744L198.642 31.256L197.426 23.832V0.919998H204.466V47ZM226.359 47.64C223.372 47.64 220.663 46.936 218.231 45.528C215.799 44.0773 213.858 42.136 212.407 39.704C210.999 37.272 210.295 34.5627 210.295 31.576C210.295 28.5893 210.999 25.9013 212.407 23.512C213.858 21.1227 215.799 19.224 218.231 17.816C220.663 16.3653 223.372 15.64 226.359 15.64C229.388 15.64 232.119 16.344 234.551 17.752C236.983 19.16 238.903 21.08 240.311 23.512C241.762 25.9013 242.487 28.5893 242.487 31.576C242.487 34.5627 241.762 37.272 240.311 39.704C238.903 42.136 236.983 44.0773 234.551 45.528C232.119 46.936 229.388 47.64 226.359 47.64ZM226.359 40.856C228.108 40.856 229.644 40.472 230.967 39.704C232.332 38.8933 233.378 37.784 234.103 36.376C234.871 34.968 235.255 33.368 235.255 31.576C235.255 29.784 234.871 28.2053 234.103 26.84C233.335 25.4747 232.29 24.408 230.967 23.64C229.644 22.8293 228.108 22.424 226.359 22.424C224.652 22.424 223.116 22.8293 221.751 23.64C220.428 24.408 219.383 25.4747 218.615 26.84C217.89 28.2053 217.527 29.784 217.527 31.576C217.527 33.368 217.89 34.968 218.615 36.376C219.383 37.784 220.428 38.8933 221.751 39.704C223.116 40.472 224.652 40.856 226.359 40.856ZM262.614 47.64C259.542 47.64 256.768 46.9573 254.294 45.592C251.862 44.184 249.92 42.264 248.47 39.832C247.062 37.4 246.358 34.6693 246.358 31.64C246.358 28.6107 247.062 25.9013 248.47 23.512C249.878 21.08 251.776 19.16 254.166 17.752C256.598 16.344 259.286 15.64 262.23 15.64C265.088 15.64 267.606 16.3013 269.782 17.624C272 18.9467 273.728 20.76 274.966 23.064C276.246 25.368 276.886 27.992 276.886 30.936C276.886 31.448 276.843 31.9813 276.757 32.536C276.715 33.048 276.63 33.624 276.502 34.264H251.286V28.504H272.854L270.23 30.808C270.144 28.9307 269.782 27.352 269.142 26.072C268.502 24.792 267.584 23.8107 266.39 23.128C265.238 22.4453 263.808 22.104 262.102 22.104C260.31 22.104 258.752 22.488 257.43 23.256C256.107 24.024 255.083 25.112 254.358 26.52C253.632 27.8853 253.27 29.528 253.27 31.448C253.27 33.368 253.654 35.0533 254.422 36.504C255.19 37.9547 256.278 39.0853 257.686 39.896C259.094 40.664 260.715 41.048 262.55 41.048C264.128 41.048 265.579 40.7707 266.902 40.216C268.267 39.6613 269.419 38.8507 270.358 37.784L274.838 42.328C273.344 44.0773 271.531 45.4 269.398 46.296C267.264 47.192 265.003 47.64 262.614 47.64ZM292.577 47.64C290.87 47.64 289.228 47.4267 287.649 47C286.07 46.5307 284.62 45.8907 283.297 45.08C281.974 44.2267 280.822 43.2027 279.841 42.008L284.321 37.528C285.388 38.7653 286.604 39.704 287.969 40.344C289.377 40.9413 290.956 41.24 292.705 41.24C294.284 41.24 295.478 41.0053 296.289 40.536C297.1 40.0667 297.505 39.384 297.505 38.488C297.505 37.5493 297.121 36.824 296.353 36.312C295.585 35.8 294.582 35.3733 293.345 35.032C292.15 34.648 290.87 34.264 289.505 33.88C288.182 33.496 286.902 32.984 285.665 32.344C284.47 31.6613 283.489 30.744 282.721 29.592C281.953 28.44 281.569 26.9467 281.569 25.112C281.569 23.1493 282.017 21.464 282.913 20.056C283.852 18.648 285.153 17.56 286.817 16.792C288.524 16.024 290.55 15.64 292.897 15.64C295.372 15.64 297.548 16.088 299.425 16.984C301.345 17.8373 302.945 19.1387 304.225 20.888L299.745 25.368C298.849 24.2587 297.825 23.4267 296.673 22.872C295.521 22.3173 294.198 22.04 292.705 22.04C291.297 22.04 290.209 22.2533 289.441 22.68C288.673 23.1067 288.289 23.7253 288.289 24.536C288.289 25.3893 288.673 26.0507 289.441 26.52C290.209 26.9893 291.19 27.3947 292.385 27.736C293.622 28.0773 294.902 28.4613 296.225 28.888C297.59 29.272 298.87 29.8267 300.065 30.552C301.302 31.2347 302.305 32.1733 303.073 33.368C303.841 34.52 304.225 36.0347 304.225 37.912C304.225 40.8987 303.18 43.2667 301.089 45.016C298.998 46.7653 296.161 47.64 292.577 47.64ZM343.898 47V29.272C343.898 27.224 343.236 25.5387 341.914 24.216C340.634 22.8933 338.97 22.232 336.922 22.232C335.556 22.232 334.34 22.5307 333.274 23.128C332.207 23.7253 331.375 24.5573 330.778 25.624C330.18 26.6907 329.882 27.9067 329.882 29.272L327.13 27.736C327.13 25.3893 327.642 23.32 328.666 21.528C329.69 19.6933 331.098 18.264 332.89 17.24C334.724 16.1733 336.772 15.64 339.034 15.64C341.338 15.64 343.386 16.152 345.178 17.176C346.97 18.2 348.378 19.6293 349.402 21.464C350.426 23.256 350.938 25.3467 350.938 27.736V47H343.898ZM322.842 47V0.919998H329.882V47H322.842ZM370.956 47.64C368.182 47.64 365.665 46.936 363.404 45.528C361.185 44.12 359.414 42.2213 358.092 39.832C356.812 37.4 356.172 34.6907 356.172 31.704C356.172 28.6747 356.812 25.9653 358.092 23.576C359.414 21.144 361.185 19.224 363.404 17.816C365.665 16.3653 368.182 15.64 370.956 15.64C373.302 15.64 375.372 16.152 377.164 17.176C378.998 18.1573 380.449 19.5227 381.516 21.272C382.582 23.0213 383.116 25.0053 383.116 27.224V36.056C383.116 38.2747 382.582 40.2587 381.516 42.008C380.492 43.7573 379.062 45.144 377.228 46.168C375.393 47.1493 373.302 47.64 370.956 47.64ZM372.108 40.984C374.71 40.984 376.801 40.1093 378.38 38.36C380.001 36.6107 380.812 34.3707 380.812 31.64C380.812 29.8053 380.449 28.184 379.724 26.776C378.998 25.368 377.974 24.28 376.652 23.512C375.372 22.7013 373.857 22.296 372.108 22.296C370.401 22.296 368.886 22.7013 367.564 23.512C366.284 24.28 365.26 25.368 364.492 26.776C363.766 28.184 363.404 29.8053 363.404 31.64C363.404 33.4747 363.766 35.096 364.492 36.504C365.26 37.912 366.284 39.0213 367.564 39.832C368.886 40.6 370.401 40.984 372.108 40.984ZM380.364 47V38.744L381.58 31.256L380.364 23.832V16.28H387.404V47H380.364ZM405.585 47L391.569 16.28H399.377L410.065 41.304H405.457L416.209 16.28H423.697L409.681 47H405.585ZM441.051 47.64C437.979 47.64 435.206 46.9573 432.731 45.592C430.299 44.184 428.358 42.264 426.907 39.832C425.499 37.4 424.795 34.6693 424.795 31.64C424.795 28.6107 425.499 25.9013 426.907 23.512C428.315 21.08 430.214 19.16 432.603 17.752C435.035 16.344 437.723 15.64 440.667 15.64C443.526 15.64 446.043 16.3013 448.219 17.624C450.438 18.9467 452.166 20.76 453.403 23.064C454.683 25.368 455.323 27.992 455.323 30.936C455.323 31.448 455.28 31.9813 455.195 32.536C455.152 33.048 455.067 33.624 454.939 34.264H429.723V28.504H451.291L448.667 30.808C448.582 28.9307 448.219 27.352 447.579 26.072C446.939 24.792 446.022 23.8107 444.827 23.128C443.675 22.4453 442.246 22.104 440.539 22.104C438.747 22.104 437.19 22.488 435.867 23.256C434.544 24.024 433.52 25.112 432.795 26.52C432.07 27.8853 431.707 29.528 431.707 31.448C431.707 33.368 432.091 35.0533 432.859 36.504C433.627 37.9547 434.715 39.0853 436.123 39.896C437.531 40.664 439.152 41.048 440.987 41.048C442.566 41.048 444.016 40.7707 445.339 40.216C446.704 39.6613 447.856 38.8507 448.795 37.784L453.275 42.328C451.782 44.0773 449.968 45.4 447.835 46.296C445.702 47.192 443.44 47.64 441.051 47.64ZM478.451 47V3.48H485.491V47H478.451ZM471.091 22.68V16.28H492.851V22.68H471.091ZM511.172 47.64C508.185 47.64 505.476 46.936 503.044 45.528C500.612 44.0773 498.67 42.136 497.22 39.704C495.812 37.272 495.108 34.5627 495.108 31.576C495.108 28.5893 495.812 25.9013 497.22 23.512C498.67 21.1227 500.612 19.224 503.044 17.816C505.476 16.3653 508.185 15.64 511.172 15.64C514.201 15.64 516.932 16.344 519.364 17.752C521.796 19.16 523.716 21.08 525.124 23.512C526.574 25.9013 527.3 28.5893 527.3 31.576C527.3 34.5627 526.574 37.272 525.124 39.704C523.716 42.136 521.796 44.0773 519.364 45.528C516.932 46.936 514.201 47.64 511.172 47.64ZM511.172 40.856C512.921 40.856 514.457 40.472 515.78 39.704C517.145 38.8933 518.19 37.784 518.916 36.376C519.684 34.968 520.068 33.368 520.068 31.576C520.068 29.784 519.684 28.2053 518.916 26.84C518.148 25.4747 517.102 24.408 515.78 23.64C514.457 22.8293 512.921 22.424 511.172 22.424C509.465 22.424 507.929 22.8293 506.564 23.64C505.241 24.408 504.196 25.4747 503.428 26.84C502.702 28.2053 502.34 29.784 502.34 31.576C502.34 33.368 502.702 34.968 503.428 36.376C504.196 37.784 505.241 38.8933 506.564 39.704C507.929 40.472 509.465 40.856 511.172 40.856ZM31.832 122.432L1.944 109.888V103.168L31.832 90.624V99.52L9.176 108.48V104.64L31.832 113.6V122.432ZM263.211 99.52V90.624L293.099 103.168V109.888L263.211 122.432V113.6L285.867 104.64V108.48L263.211 99.52ZM326.234 128.64C323.247 128.64 320.538 127.936 318.106 126.528C315.674 125.077 313.733 123.136 312.282 120.704C310.874 118.272 310.17 115.563 310.17 112.576C310.17 109.589 310.874 106.901 312.282 104.512C313.733 102.123 315.674 100.224 318.106 98.816C320.538 97.3653 323.247 96.64 326.234 96.64C329.263 96.64 331.994 97.344 334.426 98.752C336.858 100.16 338.778 102.08 340.186 104.512C341.637 106.901 342.362 109.589 342.362 112.576C342.362 115.563 341.637 118.272 340.186 120.704C338.778 123.136 336.858 125.077 334.426 126.528C331.994 127.936 329.263 128.64 326.234 128.64ZM326.234 121.856C327.983 121.856 329.519 121.472 330.842 120.704C332.207 119.893 333.253 118.784 333.978 117.376C334.746 115.968 335.13 114.368 335.13 112.576C335.13 110.784 334.746 109.205 333.978 107.84C333.21 106.475 332.165 105.408 330.842 104.64C329.519 103.829 327.983 103.424 326.234 103.424C324.527 103.424 322.991 103.829 321.626 104.64C320.303 105.408 319.258 106.475 318.49 107.84C317.765 109.205 317.402 110.784 317.402 112.576C317.402 114.368 317.765 115.968 318.49 117.376C319.258 118.784 320.303 119.893 321.626 120.704C322.991 121.472 324.527 121.856 326.234 121.856ZM351.566 128V94.656C351.566 92.1813 352.099 90.0053 353.166 88.128C354.232 86.208 355.726 84.6933 357.646 83.584C359.608 82.4747 361.848 81.92 364.366 81.92C366.926 81.92 368.995 82.4747 370.574 83.584C372.195 84.6933 373.368 86.208 374.094 88.128C374.862 90.0053 375.246 92.1813 375.246 94.656L370.126 94.592C370.126 92.6293 369.635 91.0933 368.654 89.984C367.715 88.8747 366.286 88.32 364.366 88.32C362.446 88.32 360.995 88.8747 360.014 89.984C359.075 91.0507 358.606 92.5227 358.606 94.4V128H351.566ZM344.206 103.68V97.28H386.446V103.68H344.206ZM370.126 128V93.248C370.126 90.9013 370.638 88.832 371.662 87.04C372.728 85.248 374.179 83.84 376.014 82.816C377.891 81.792 380.046 81.28 382.478 81.28C384.355 81.28 385.955 81.6 387.278 82.24C388.6 82.88 389.838 83.7973 390.99 84.992L386.446 89.536C385.934 89.024 385.379 88.6187 384.782 88.32C384.184 88.0213 383.416 87.872 382.478 87.872C380.771 87.872 379.448 88.3413 378.51 89.28C377.614 90.176 377.166 91.4773 377.166 93.184V128H370.126ZM404.426 128.64C401.354 128.64 398.581 127.957 396.106 126.592C393.674 125.184 391.733 123.264 390.282 120.832C388.874 118.4 388.17 115.669 388.17 112.64C388.17 109.611 388.874 106.901 390.282 104.512C391.69 102.08 393.589 100.16 395.978 98.752C398.41 97.344 401.098 96.64 404.042 96.64C406.901 96.64 409.418 97.3013 411.594 98.624C413.813 99.9467 415.541 101.76 416.778 104.064C418.058 106.368 418.698 108.992 418.698 111.936C418.698 112.448 418.655 112.981 418.57 113.536C418.527 114.048 418.442 114.624 418.314 115.264H393.098V109.504H414.666L412.042 111.808C411.957 109.931 411.594 108.352 410.954 107.072C410.314 105.792 409.397 104.811 408.202 104.128C407.05 103.445 405.621 103.104 403.914 103.104C402.122 103.104 400.565 103.488 399.242 104.256C397.919 105.024 396.895 106.112 396.17 107.52C395.445 108.885 395.082 110.528 395.082 112.448C395.082 114.368 395.466 116.053 396.234 117.504C397.002 118.955 398.09 120.085 399.498 120.896C400.906 121.664 402.527 122.048 404.362 122.048C405.941 122.048 407.391 121.771 408.714 121.216C410.079 120.661 411.231 119.851 412.17 118.784L416.65 123.328C415.157 125.077 413.343 126.4 411.21 127.296C409.077 128.192 406.815 128.64 404.426 128.64ZM424.342 128V97.28H431.382V128H424.342ZM431.382 110.912L428.95 109.696C428.95 105.813 429.803 102.677 431.51 100.288C433.259 97.856 435.883 96.64 439.382 96.64C440.918 96.64 442.304 96.9173 443.542 97.472C444.779 98.0267 445.931 98.9227 446.998 100.16L442.39 104.896C441.835 104.299 441.216 103.872 440.534 103.616C439.851 103.36 439.062 103.232 438.166 103.232C436.203 103.232 434.582 103.851 433.302 105.088C432.022 106.325 431.382 108.267 431.382 110.912ZM461.321 113.152V100.8H463.049C464.457 100.8 465.673 100.544 466.697 100.032C467.764 99.4773 468.574 98.7307 469.129 97.792C469.726 96.8107 470.025 95.68 470.025 94.4C470.025 93.12 469.748 92.0107 469.193 91.072C468.638 90.1333 467.849 89.408 466.825 88.896C465.801 88.384 464.585 88.128 463.177 88.128C461.342 88.128 459.7 88.64 458.249 89.664C456.841 90.6453 455.71 92.1173 454.857 94.08L449.737 89.856C451.017 87.0827 452.852 84.9707 455.241 83.52C457.673 82.0267 460.446 81.28 463.561 81.28C466.249 81.28 468.617 81.8133 470.665 82.88C472.756 83.9467 474.377 85.44 475.529 87.36C476.681 89.2373 477.257 91.4133 477.257 93.888C477.257 96.192 476.745 98.24 475.721 100.032C474.74 101.824 473.332 103.317 471.497 104.512C469.662 105.707 467.486 106.539 464.969 107.008L468.041 103.872L467.401 113.152H461.321ZM464.329 128.64C462.964 128.64 461.833 128.192 460.937 127.296C460.084 126.357 459.657 125.227 459.657 123.904C459.657 122.539 460.084 121.408 460.937 120.512C461.833 119.616 462.964 119.168 464.329 119.168C465.694 119.168 466.804 119.616 467.657 120.512C468.553 121.408 469.001 122.539 469.001 123.904C469.001 125.227 468.553 126.357 467.657 127.296C466.804 128.192 465.694 128.64 464.329 128.64Z" fill="black"/>
<path d="M39.852 128V82.816H47.02L64.812 110.528H61.164L78.892 82.816H86.124V128H76.076V99.776L77.868 100.224L66.284 118.272H59.628L48.108 100.224L49.836 99.776V128H39.852ZM94.7895 128V82.816H104.838V128H94.7895ZM127.428 111.168L110.02 82.816H121.668L135.044 105.728H127.556L140.932 82.816H152.324L134.788 111.168H127.428ZM126.212 128V106.56H136.26V128H126.212ZM147.835 128L165.755 82.816H174.843L192.571 128H181.947L168.379 90.496H172.027L158.267 128H147.835ZM158.011 119.808V111.616H182.651V119.808H158.011ZM216.227 128.704C212.941 128.704 209.848 128.107 206.947 126.912C204.088 125.717 201.592 124.075 199.459 121.984C197.325 119.851 195.64 117.376 194.403 114.56C193.208 111.701 192.611 108.629 192.611 105.344C192.611 102.059 193.229 99.008 194.467 96.192C195.704 93.376 197.411 90.9227 199.587 88.832C201.805 86.6987 204.387 85.056 207.331 83.904C210.275 82.7093 213.432 82.112 216.803 82.112C220.685 82.112 224.205 82.816 227.363 84.224C230.563 85.632 233.208 87.5733 235.299 90.048L228.451 96.896C227 95.0187 225.293 93.6107 223.331 92.672C221.368 91.7333 219.149 91.264 216.675 91.264C214.029 91.264 211.661 91.8613 209.571 93.056C207.48 94.208 205.837 95.8507 204.643 97.984C203.491 100.075 202.915 102.528 202.915 105.344C202.915 108.16 203.491 110.635 204.643 112.768C205.795 114.901 207.373 116.565 209.378 117.76C211.384 118.955 213.688 119.552 216.291 119.552C218.936 119.552 221.176 119.061 223.011 118.08C224.888 117.056 226.317 115.605 227.299 113.728C228.323 111.808 228.835 109.483 228.835 106.752L235.491 111.232L215.331 110.912V102.4H239.075V103.872C239.075 109.291 238.093 113.856 236.131 117.568C234.211 121.237 231.523 124.011 228.067 125.888C224.653 127.765 220.707 128.704 216.227 128.704ZM245.165 128V82.816H255.213V128H245.165Z" fill="#0069EC"/>
</svg>
