<svg width="281" height="537" viewBox="0 0 281 537" fill="none" xmlns="http://www.w3.org/2000/svg">
<rect x="0.972656" width="280" height="537" rx="28" fill="white"/>
<rect x="89.0312" y="525.623" width="99.3548" height="3.41314" rx="1.70657" fill="black"/>
<path d="M78 0H202V0C200.808 0.341537 199.972 1.4133 199.931 2.65298L199.914 3.15169V3.15169C199.914 10.7999 193.714 17 186.066 17H93.9339C86.2857 17 80.0856 10.7999 80.0856 3.15169V3.15169L80.0692 2.65298C80.0283 1.4133 79.1924 0.341537 78 0V0Z" fill="black"/>
<g filter="url(#filter0_d_498_104)">
<rect x="67" y="164" width="155" height="155" rx="30" fill="#CF2850"/>
</g>
<defs>
<filter id="filter0_d_498_104" x="63" y="164" width="163" height="163" filterUnits="userSpaceOnUse" color-interpolation-filters="sRGB">
<feFlood flood-opacity="0" result="BackgroundImageFix"/>
<feColorMatrix in="SourceAlpha" type="matrix" values="0 0 0 0 0 0 0 0 0 0 0 0 0 0 0 0 0 0 127 0" result="hardAlpha"/>
<feOffset dy="4"/>
<feGaussianBlur stdDeviation="2"/>
<feComposite in2="hardAlpha" operator="out"/>
<feColorMatrix type="matrix" values="0 0 0 0 0 0 0 0 0 0 0 0 0 0 0 0 0 0 0.25 0"/>
<feBlend mode="normal" in2="BackgroundImageFix" result="effect1_dropShadow_498_104"/>
<feBlend mode="normal" in="SourceGraphic" in2="effect1_dropShadow_498_104" result="shape"/>
</filter>
</defs>
</svg>
