<svg width="89" height="16" viewBox="0 0 89 16" fill="none" xmlns="http://www.w3.org/2000/svg">
<g clip-path="url(#clip0_2803_12142)">
<path d="M81.3638 4.97979C79.9422 4.97979 78.7955 6.10853 78.7955 7.5079C78.7955 8.90728 79.9422 10.036 81.3638 10.036C82.7854 10.036 83.932 8.90728 83.932 7.5079C83.932 6.10853 82.7854 4.97979 81.3638 4.97979ZM81.3638 9.15151C80.4451 9.15151 79.6941 8.41442 79.6941 7.5079C79.6941 6.60139 80.4429 5.8643 81.3638 5.8643C82.2847 5.8643 83.0335 6.60139 83.0335 7.5079C83.0335 8.41442 82.2825 9.15151 81.3638 9.15151V9.15151ZM84.6361 4.87637C84.6361 5.20422 84.3679 5.46605 84.0371 5.46605C83.704 5.46605 83.4381 5.20202 83.4381 4.87637C83.4381 4.55073 83.7063 4.2867 84.0371 4.2867C84.3679 4.2867 84.6361 4.55073 84.6361 4.87637ZM86.3371 5.47485C86.2991 4.68495 86.1158 3.98526 85.528 3.40879C84.9423 2.83232 84.2315 2.6519 83.4291 2.61229C82.6021 2.56609 80.1233 2.56609 79.2962 2.61229C78.496 2.6497 77.7852 2.83012 77.1974 3.40659C76.6095 3.98306 76.4285 4.68275 76.3882 5.47265C76.3413 6.28675 76.3413 8.72686 76.3882 9.54096C76.4262 10.3309 76.6095 11.0305 77.1974 11.607C77.7852 12.1835 78.4938 12.3639 79.2962 12.4035C80.1233 12.4497 82.6021 12.4497 83.4291 12.4035C84.2315 12.3661 84.9423 12.1857 85.528 11.607C86.1136 11.0305 86.2969 10.3309 86.3371 9.54096C86.384 8.72686 86.384 6.28895 86.3371 5.47485V5.47485ZM85.2687 10.4145C85.0943 10.8457 84.7568 11.178 84.3165 11.3518C83.6571 11.6092 82.0925 11.5498 81.3638 11.5498C80.6351 11.5498 79.0682 11.607 78.4111 11.3518C77.973 11.1802 77.6355 10.8479 77.4589 10.4145C77.1974 9.76539 77.2577 8.22519 77.2577 7.5079C77.2577 6.79061 77.1996 5.24822 77.4589 4.60134C77.6332 4.17009 77.9708 3.83784 78.4111 3.66402C79.0705 3.40659 80.6351 3.466 81.3638 3.466C82.0925 3.466 83.6593 3.40879 84.3165 3.66402C84.7546 3.83564 85.0921 4.16789 85.2687 4.60134C85.5302 5.25042 85.4698 6.79061 85.4698 7.5079C85.4698 8.22519 85.5302 9.76759 85.2687 10.4145Z" fill="black"/>
</g>
<g clip-path="url(#clip1_2803_12142)">
<path d="M54.2198 11.8913V5.5573H52.0729V11.8913H54.2198ZM53.1466 4.69199C53.8953 4.69199 54.3613 4.20561 54.3613 3.59781C54.3473 2.97629 53.8953 2.50342 53.1608 2.50342C52.4265 2.50342 51.9462 2.9763 51.9462 3.59781C51.9462 4.20564 52.4121 4.69199 53.1326 4.69199H53.1466ZM55.4081 11.8913H57.5549V8.35407C57.5549 8.16477 57.5689 7.97566 57.6256 7.84033C57.7808 7.46211 58.134 7.07037 58.7271 7.07037C59.504 7.07037 59.8147 7.65122 59.8147 8.50269V11.8912H61.9615V8.25939C61.9615 6.31384 60.9023 5.4086 59.4898 5.4086C58.3317 5.4086 57.8232 6.04342 57.5407 6.4758H57.555V5.55717H55.4081C55.4363 6.15152 55.4081 11.8913 55.4081 11.8913Z" fill="black"/>
</g>
<g clip-path="url(#clip2_2803_12142)">
<path d="M37.5513 4.19606C37.1295 4.3741 36.682 4.49097 36.2238 4.54277C36.7011 4.27027 37.0675 3.83875 37.2401 3.3246C36.7864 3.58108 36.29 3.76179 35.7724 3.85892C35.3508 3.431 34.7502 3.16357 34.0854 3.16357C32.809 3.16357 31.7741 4.14944 31.7741 5.36539C31.7741 5.53799 31.7945 5.70602 31.8339 5.86721C29.9131 5.77536 28.2101 4.89878 27.0701 3.56663C26.8712 3.89183 26.7572 4.2701 26.7572 4.67357C26.7572 5.4375 27.1653 6.11142 27.7854 6.50629C27.4184 6.49534 27.0594 6.4009 26.7385 6.23086C26.7384 6.24008 26.7384 6.2493 26.7384 6.25857C26.7384 7.32539 27.5351 8.21534 28.5924 8.41762C28.252 8.5058 27.895 8.51871 27.5486 8.45535C27.8427 9.33013 28.6963 9.96669 29.7076 9.98451C28.9166 10.575 27.92 10.9271 26.8372 10.9271C26.6507 10.9271 26.4667 10.9166 26.2859 10.8963C27.3087 11.521 28.5236 11.8856 29.8288 11.8856C34.08 11.8856 36.4047 8.5304 36.4047 5.62075C36.4047 5.52524 36.4025 5.43029 36.398 5.33588C36.8505 5.02425 37.241 4.63828 37.5513 4.19606Z" fill="black"/>
</g>
<g clip-path="url(#clip3_2803_12142)">
<path d="M6.12514 11.8914V7.78H5.00677V6.29971H6.12514V5.03535C6.12514 4.0418 6.78577 3.12939 8.30798 3.12939C8.9243 3.12939 9.38005 3.18683 9.38005 3.18683L9.34414 4.56917C9.34414 4.56917 8.87935 4.56478 8.37216 4.56478C7.82323 4.56478 7.73528 4.81068 7.73528 5.21882V6.29971H9.38777L9.31587 7.78H7.73528V11.8914H6.12514" fill="black"/>
</g>
<defs>
<clipPath id="clip0_2803_12142">
<rect width="10.0137" height="11.2654" fill="white" transform="translate(76.3547 1.87744)"/>
</clipPath>
<clipPath id="clip1_2803_12142">
<rect width="10.0137" height="9.38785" fill="white" transform="translate(51.9462 2.50342)"/>
</clipPath>
<clipPath id="clip2_2803_12142">
<rect width="11.2654" height="8.76199" fill="white" transform="translate(26.2859 3.12939)"/>
</clipPath>
<clipPath id="clip3_2803_12142">
<rect width="4.381" height="8.76199" fill="white" transform="translate(5.00677 3.12939)"/>
</clipPath>
</defs>
</svg>
