<svg width="70" height="50" viewBox="0 0 70 50" fill="none" xmlns="http://www.w3.org/2000/svg">
<path d="M52.9591 5.25729L48.714 0L29.6258 23.6391L33.8709 28.8964L52.9591 5.25729ZM65.7247 0L33.8709 39.4482L21.286 23.9001L17.0409 29.1574L33.8709 50L70 5.25729L65.7247 0ZM0 29.1574L16.8301 50L21.0753 44.7427L4.27526 23.9001L0 29.1574Z" fill="#0065E3"/>
</svg>
