{
  "type": "service_account",
  "project_id": "miyagi-fb",
  "private_key_id": "90b410ac58f4d6bd45487dde67cb8edd3225ee9c",
  "private_key": "-----BEGIN PRIVATE KEY-----\nMIIEvQIBADANBgkqhkiG9w0BAQEFAASCBKcwggSjAgEAAoIBAQCq6PGutnM3Omax\nLyyBcBcHsG+TBkcjWFfWRAWNEyzDnIUNHXduWNlMGzxdQNm6oW5m7MEx9o1IqO2L\nmvsixGEosWOgLhjWTf941IlhFPzgEykGfcZPzy7jzROcBLFKwqPoYBZkMwD+yvAG\n+wbPA4wpF3Rnufk8L9z1BsFSy4z7tfnn2I49ZW5QSlajgu2BJz3zUmw399kzVCwE\nKN8jwzWoXeSVzrk+UiNOTwL9192ALCNQUh6W96Qi4Sg76wveaW+J37USp9akx/t2\n3JGLU5InxGt8RA9PQT1gAYVDgqJD1Q+4NGg5ORYtQEbQtlupV8Wt2URg+rEs1EId\n+0jBANz3AgMBAAECggEABS2IgOwLIo205cJRnVxJflSklLY4eoQnKRknd+YwUX7Q\n8xxE7YVok+sxUXvw/Lv+TcT3d22KSzy+8Z9Q43VCokp5g7VR0FBNoJoDzXqmzJ0X\n/Zfa5bkXqRQh93SW8HZkI9qhYwi+i3mXewao5qWrXeVVg/z45Y9nqM67FaiQDWIh\n0NeHP1rAs3Z35MaWhSJBjSjR23Ts9gEW+x5DoOQhHVHszYxh3gkjsmx1XPqMolxc\nlyPaLhyFpbuGjIDVa89n5iv9LHCu/t/dLfhhm+dysiWEryJ95zVY6C2ARhqoym+v\nEtF1UbACwv8jrIjKquU8nBsxvvV5M4cQcek8AD5ndQKBgQDY6Q9LaQ+Fo6Dt9srn\ne6JFySZcDsnngnkkXtKAWVOebAgDom7irNVmLDtVxONx/tVntHa44HyaD2oCu7Bd\npXNlwCpEgNTmEkVPn1B4Yrp/ljhuNbVmZze/isrY3G4fsGc5/Y0HeBMyhrv3SEmk\n8ILNt1MfMEW0OvREbm6A3cLygwKBgQDJtbNEIkbQ/LValt3kZ8vskk22g/pAeqHI\n5Gta1pZFPVyhxqyxtBr56u/suyAtwc6FATUHuVsHuO5PdyeLIjn1uoJFxb0X9FNY\nYMpdEgbpfZlKneNM8zjcNbutCKTduG/EhBw9V9SJt62MPSGVTcOPzc5Np/GAlkwK\ntho7zYdRfQKBgQDFCekv2o8UGdDdedtVrjR5akEjTPfSCu6awFw95WcVOROKoapS\n1SfA+ZsozYLDEfevjfpu9NWbaTcmpnKOjvYlzwtWUSWUnbJCovkJcr3xmndGfhl7\nnXXB1IVxu8N5m9gZkJ7k0wm1Uzk6Z3smjqhz0P18DnCzSP6NjzdobophmwKBgHev\nuAI6sHh7KoTpNhq8ODVUjoY5A3nVCkBwwP6yi5HkGh3oDDqZWtRmQhze3/YmpIsp\nLzU5F7maUtWWJ0GYennDRF9wOIaJNBchv5HAC5fqLdYnn2LegyOvQoAmu+TP9onN\ntg/0GKnq8jBfaZj0/pBKlxpfB568D7zfVuubRarlAoGAJJBsk/GjEWqBHOOP7UO/\nggQ4siG9Byu4M7fcWZ7U3icakSBAn6lFAvBGqSFX1x1Ymq278rWn6lvuXFuMhmx/\ngmIczyImY3RtjvHqoqxZjuDSM1c46ZmUqW15a+M4uL+KTPHHNHLjT9b04XFpYQAl\nXOkJNzt6EAvruQhxwbH5P7c=\n-----END PRIVATE KEY-----\n",
  "client_email": "firebase-adminsdk-v0exu@miyagi-fb.iam.gserviceaccount.com",
  "client_id": "108650017061987432800",
  "auth_uri": "https://accounts.google.com/o/oauth2/auth",
  "token_uri": "https://oauth2.googleapis.com/token",
  "auth_provider_x509_cert_url": "https://www.googleapis.com/oauth2/v1/certs",
  "client_x509_cert_url": "https://www.googleapis.com/robot/v1/metadata/x509/firebase-adminsdk-v0exu%40miyagi-fb.iam.gserviceaccount.com",
  "universe_domain": "googleapis.com"
}
